{
  "Version": "1.0",
  "IdentityManager": {
    "Default": {}
  },
  "CredentialsProvider": {
    "CognitoIdentity": {
      "Default": {
        "PoolId": "us-east-2:7490b7c5-6cab-4cfb-9394-bf2bbd3255ee",
        "Region": "us-east-2"
      }
    }
  },
  "S3TransferUtility": {
    "Default": {
      "Bucket": "viame-media",
      "Region": "me-south-1"
    }
  }
}
